Eksploraturna podatkovnog skupa Spotify
…
Spotify$duration_min <-  sprintf("%02d.%02d", floor(Spotify$duration_ms / 60000),
round(((Spotify$duration_ms / 60000) - floor(Spotify$duration_ms / 60000)) * 60))

Pregled žanrova, izvođača i albuma

Pogledajmo koji sve žanrovi glazbe su u ovom skupu podataka.

## [1] "pop"   "rap"   "rock"  "latin" "r&b"   "edm"

Naš podatkovni skup osim žanra za pojedinu pjesmu ima definiran i
podžanr. Ovdje je popis svih kombinacija žanrova poredan po broju
pjesama:

## # A tibble: 24 × 3
##    playlist_genre playlist_subgenre         count
##    <fct>          <fct>                     <int>
##  1 edm            progressive electro house  1809
##  2 rap            southern hip hop           1675
##  3 pop            indie poptimism            1672
##  4 latin          latin hip hop              1656
##  5 r&b            neo soul                   1637
##  6 edm            pop edm                    1517
##  7 edm            electro house              1511
##  8 rock           hard rock                  1485
##  9 rap            gangster rap               1458
## 10 pop            electropop                 1408
## # ℹ 14 more rows
…
